  6.4611267e+01  4.6721493e+01 -3.4683353e+01               1
  5.9958572e+01  5.7243385e+01 -1.1533134e+01              F8
  5.2351357e+01  6.5079796e+01  6.5544338e+00               3
  4.2321545e+01  6.8539574e+01  2.1316227e+01               4
  3.0942345e+01  6.5776360e+01  3.6488274e+01              F2
  2.1028160e+01  5.6609360e+01  4.9350300e+01               6
  1.0143717e+01  4.5969933e+01  5.8677292e+01               7
  0.0000000e+00  3.0557274e+01  6.5540543e+01               8
 -1.0383282e+01  1.0398106e+01  7.0073082e+01               9
  5.4505440e+01  6.6727562e+01 -2.5030424e+01             AF8
  4.6746250e+01  7.6417358e+01 -5.4428492e+00              11
  3.4827435e+01  8.0543610e+01  1.2321847e+01             AF4
  2.2656063e+01  7.8901230e+01  2.7536402e+01              13
  1.1065556e+01  7.1544266e+01  4.0934879e+01              14
  0.0000000e+00  5.9676014e+01  5.1978603e+01             FCz
 -1.0143717e+01  4.5969933e+01  5.8677292e+01              16
 -2.0793837e+01  2.4574930e+01  6.3721848e+01              17
  3.6840645e+01  8.6395950e+01 -1.7617495e+01             FP2
  2.5062853e+01  9.0441292e+01 -3.7892500e-01              19
  1.2485344e+01  8.9581223e+01  1.5164257e+01              20
  0.0000000e+00  8.2879005e+01  2.9255831e+01              Fz
 -1.1065556e+01  7.1544266e+01  4.0934879e+01              22
 -2.1028160e+01  5.6609360e+01  4.9350300e+01              23
 -3.0047203e+01  3.7440327e+01  5.4884483e+01             FC1
  1.2104262e+01  9.6347122e+01 -1.4880524e+01              25
  0.0000000e+00  9.5139717e+01 -1.0000000e-06             FPz
 -1.2485344e+01  8.9581223e+01  1.5164257e+01              27
 -2.2656063e+01  7.8901230e+01  2.7536402e+01              28
 -3.0942345e+01  6.5776360e+01  3.6488274e+01              F1
 -3.8702477e+01  4.7516808e+01  4.3913128e+01              30
  0.0000000e+00  9.7351532e+01 -2.8690731e+01              31
 -1.2104262e+01  9.6347122e+01 -1.4880524e+01              32
 -2.5062853e+01  9.0441292e+01 -3.7892500e-01              33
 -3.4827435e+01  8.0543610e+01  1.2321847e+01             AF3
 -4.2321545e+01  6.8539574e+01  2.1316227e+01              35
 -4.5901115e+01  5.5760906e+01  3.0848625e+01              F3
 -3.6840645e+01  8.6395950e+01 -1.7617495e+01             FP1
 -4.6746250e+01  7.6417358e+01 -5.4428492e+00              38
 -5.2351357e+01  6.5079796e+01  6.5544338e+00              39
 -5.6091827e+01  5.1967564e+01  1.7507544e+01              40
 -5.4554115e+01  4.0625732e+01  3.1275789e+01              41
 -4.8944328e+01  3.0507010e+01  4.3894100e+01             FC3
 -4.1926849e+01  1.9664927e+01  5.4236069e+01              43
 -3.2022644e+01  6.3770342e+00  6.3823425e+01              C1
 -1.6882832e+01 -9.4637079e+00  7.1651604e+01              45
 -5.4505440e+01  6.6727562e+01 -2.5030424e+01             AF7
 -5.9958572e+01  5.7243385e+01 -1.1533134e+01              F7
 -6.4106766e+01  4.5867874e+01  1.0238440e+00              F5
 -6.5529648e+01  3.4118225e+01  1.5714389e+01             FC5
 -6.2602768e+01  2.3630674e+01  3.0888193e+01              50
 -5.6381104e+01  1.2220827e+01  4.4155746e+01              51
 -4.7812012e+01  8.9340001e-01  5.5059490e+01              52
 -3.3431297e+01 -1.4885591e+01  6.6440109e+01              53
 -6.4611267e+01  4.6721493e+01 -3.4683353e+01              54
 -6.8340988e+01  3.7227577e+01 -1.7455589e+01              55
 -7.1649178e+01  2.5985493e+01 -1.2738980e+00              56
 -7.1445038e+01  1.4907692e+01  1.4780849e+01              57
 -6.7463470e+01  5.2688360e+00  3.1019878e+01              58
 -6.0655659e+01 -6.3695111e+00  4.4628574e+01              C3
 -4.8271225e+01 -2.0505075e+01  5.7288902e+01              60
 -7.0818138e+01  2.5677086e+01 -3.7663403e+01              61
 -7.4017616e+01  1.4555002e+01 -1.9373926e+01             FT7
 -7.5780334e+01  4.4998932e+00 -3.1441231e+00              63
 -7.4482193e+01 -3.8318861e+00  1.4290709e+01              C5
 -7.0060959e+01 -1.2187540e+01  3.0805365e+01              65
 -6.1554840e+01 -2.4974630e+01  4.3697105e+01             CP3
 -7.2340004e+01  1.2432805e+01 -5.4086506e+01             FT9
 -7.4042999e+01  6.0910072e+00 -3.7010117e+01              T9
 -7.5870903e+01 -8.7086792e+00 -2.1081976e+01              T7
 -7.6290993e+01 -1.5153289e+01 -3.4544339e+00              70
 -7.3888870e+01 -2.0731808e+01  1.4475078e+01              71
 -6.9349907e+01 -2.7895102e+01  2.8916246e+01              72
 -7.1966110e+01  4.2267361e+00 -7.3252472e+01              73
 -7.4280441e+01 -2.7781960e+01 -1.8907389e+01              74
 -7.2735016e+01 -3.4970451e+01  5.0851601e-01              75
 -6.9352646e+01 -3.9667408e+01  1.7896978e+01             CP5
 -6.1902386e+01 -4.2291161e+01  3.5164989e+01              77
 -5.1607933e+01 -4.0327408e+01  5.0306538e+01              78
 -3.7186127e+01 -3.7279083e+01  6.2507706e+01             CP1
 -2.0476614e+01 -3.1165936e+01  7.0420784e+01              80
  0.0000000e+00 -2.1312414e+01  7.4386398e+01              81
 -6.7693115e+01 -1.0506862e+01 -8.7544365e+01              82
 -6.9808723e+01 -4.2798008e+01 -3.1867018e+01              83
 -6.9679138e+01 -4.5213799e+01 -1.3767170e+01             TP7
 -6.6810287e+01 -5.1383553e+01  5.8546872e+00              85
 -6.0018326e+01 -5.5389870e+01  2.3927704e+01              P5
 -5.0122177e+01 -5.6092056e+01  4.0685085e+01              P3
 -3.6871601e+01 -5.3149166e+01  5.5068840e+01              P1
 -2.0620796e+01 -4.8500839e+01  6.4604248e+01              89
  0.0000000e+00 -3.8108448e+01  7.1495216e+01             CPz
 -6.2339012e+01 -2.5017076e+01 -9.7714149e+01              91
 -6.4254005e+01 -3.3435780e+01 -7.8827003e+01              92
 -6.5542984e+01 -4.5593681e+01 -5.9971371e+01              93
 -6.6437592e+01 -4.9435646e+01 -4.4573627e+01             TP9
 -6.5543335e+01 -5.5311516e+01 -2.6985374e+01              95
 -6.2162575e+01 -6.1854286e+01 -8.2572689e+00              P7
 -5.5397400e+01 -6.7294037e+01  1.0539122e+01             PO7
 -4.6523758e+01 -6.9134422e+01  2.7616926e+01              98
 -3.4138580e+01 -6.7689758e+01  4.3321438e+01              99
 -1.8890968e+01 -6.2275196e+01  5.5873623e+01             100
  0.0000000e+00 -6.8331223e+01  5.2462437e+01              Pz
 -6.0460808e+01 -4.3856518e+01 -9.1887184e+01             102
 -5.9857693e+01 -5.1086945e+01 -7.5549049e+01             103
 -5.8479416e+01 -6.0632538e+01 -5.6442993e+01             104
 -5.8947456e+01 -6.3401218e+01 -4.0730087e+01             105
 -5.6286415e+01 -7.0225655e+01 -2.2935989e+01              P9
 -4.9086754e+01 -7.6949455e+01 -4.4589462e+00             107
 -4.0106503e+01 -8.0883369e+01  1.2898992e+01             108
 -2.8968632e+01 -7.8948921e+01  2.9267981e+01             PO3
 -1.6808519e+01 -7.4806091e+01  4.2842644e+01             110
 -5.2384865e+01 -6.0402916e+01 -8.8013931e+01             111
 -5.0719002e+01 -6.6668221e+01 -7.2851822e+01             112
 -4.8244396e+01 -7.4653664e+01 -5.3419651e+01             113
 -4.6016785e+01 -7.8381058e+01 -3.7982750e+01             114
 -4.0206829e+01 -8.5108788e+01 -1.9165075e+01             115
 -3.1248932e+01 -8.9459007e+01 -8.1312603e-01              O1
 -1.8386171e+01 -8.9307663e+01  1.6038092e+01             117
 -1.0706402e+01 -8.4182480e+01  2.9096670e+01             118
  0.0000000e+00 -7.8715271e+01  4.0048805e+01             POz
 -4.1634178e+01 -7.1330528e+01 -8.6784554e+01             120
 -3.9197670e+01 -7.7356979e+01 -6.9155106e+01             121
 -3.4454994e+01 -8.5278099e+01 -5.3570511e+01             122
 -2.9479523e+01 -9.0331841e+01 -3.5557663e+01             123
 -1.9684780e+01 -9.5279396e+01 -1.7863043e+01             124
 -1.0100126e+01 -9.5139717e+01  1.0000000e-06             125
  0.0000000e+00 -9.1199043e+01  1.5820258e+01              Oz
  1.0706402e+01 -8.4182480e+01  2.9096670e+01             127
  1.6808519e+01 -7.4806091e+01  4.2842644e+01             128
  1.8890968e+01 -6.2275196e+01  5.5873623e+01             129
  2.0620796e+01 -4.8500839e+01  6.4604248e+01             130
  2.0476614e+01 -3.1165936e+01  7.0420784e+01             131
  1.6882832e+01 -9.4637079e+00  7.1651604e+01             132
 -3.1116966e+01 -8.1012939e+01 -8.4390976e+01             133
 -2.4817863e+01 -8.5385269e+01 -6.9735802e+01             134
 -1.8072376e+01 -9.1816551e+01 -5.2959030e+01             135
 -1.0125233e+01 -9.5232552e+01 -3.4472565e+01             136
  0.0000000e+00 -9.7295998e+01 -1.7165754e+01             137
  1.0100126e+01 -9.5139717e+01  1.0000000e-06             138
  1.8386171e+01 -8.9307663e+01  1.6038092e+01             139
  2.8968632e+01 -7.8948921e+01  2.9267981e+01             PO4
  3.4138580e+01 -6.7689758e+01  4.3321438e+01             141
  3.6871601e+01 -5.3149166e+01  5.5068840e+01              P2
  3.7186127e+01 -3.7279083e+01  6.2507706e+01             CP2
  3.3431297e+01 -1.4885591e+01  6.6440109e+01             144
 -1.6555838e+01 -8.8036919e+01 -8.3538773e+01             145
 -8.3076982e+00 -8.8112167e+01 -6.9485893e+01             146
  0.0000000e+00 -9.3698807e+01 -5.2504330e+01             147
  1.0125233e+01 -9.5232552e+01 -3.4472565e+01             148
  1.9684780e+01 -9.5279396e+01 -1.7863043e+01             149
  3.1248932e+01 -8.9459007e+01 -8.1312603e-01              O2
  4.0106503e+01 -8.0883369e+01  1.2898992e+01             151
  4.6523758e+01 -6.9134422e+01  2.7616926e+01             152
  5.0122177e+01 -5.6092056e+01  4.0685085e+01              P4
  5.1607933e+01 -4.0327408e+01  5.0306538e+01             154
  4.8271225e+01 -2.0505075e+01  5.7288902e+01             155
  8.3076982e+00 -8.8112167e+01 -6.9485893e+01             156
  1.8072376e+01 -9.1816551e+01 -5.2959030e+01             157
  2.9479523e+01 -9.0331841e+01 -3.5557663e+01             158
  4.0206829e+01 -8.5108788e+01 -1.9165075e+01             159
  4.9086754e+01 -7.6949455e+01 -4.4589462e+00             160
  5.5397400e+01 -6.7294037e+01  1.0539122e+01             PO8
  6.0018326e+01 -5.5389870e+01  2.3927704e+01              P6
  6.1902386e+01 -4.2291161e+01  3.5164989e+01             163
  6.1554840e+01 -2.4974630e+01  4.3697105e+01             CP4
  1.6555838e+01 -8.8036919e+01 -8.3538773e+01             165
  2.4817863e+01 -8.5385269e+01 -6.9735802e+01             166
  3.4454994e+01 -8.5278099e+01 -5.3570511e+01             167
  4.6016785e+01 -7.8381058e+01 -3.7982750e+01             168
  5.6286415e+01 -7.0225655e+01 -2.2935989e+01             P10
  6.2162575e+01 -6.1854286e+01 -8.2572689e+00              P8
  6.6810287e+01 -5.1383553e+01  5.8546872e+00             171
  6.9352646e+01 -3.9667408e+01  1.7896978e+01             CP6
  6.9349907e+01 -2.7895102e+01  2.8916246e+01             173
  3.1116966e+01 -8.1012939e+01 -8.4390976e+01             174
  3.9197670e+01 -7.7356979e+01 -6.9155106e+01             175
  4.8244396e+01 -7.4653664e+01 -5.3419651e+01             176
  5.8947456e+01 -6.3401218e+01 -4.0730087e+01             177
  6.5543335e+01 -5.5311516e+01 -2.6985374e+01             178
  6.9679138e+01 -4.5213799e+01 -1.3767170e+01             TP8
  7.2735016e+01 -3.4970451e+01  5.0851601e-01             180
  7.3888870e+01 -2.0731808e+01  1.4475078e+01             181
  7.0060959e+01 -1.2187540e+01  3.0805365e+01             182
  6.0655659e+01 -6.3695111e+00  4.4628574e+01              C4
  4.7812012e+01  8.9340001e-01  5.5059490e+01             184
  3.2022644e+01  6.3770342e+00  6.3823425e+01              C2
  1.0383282e+01  1.0398106e+01  7.0073082e+01             186
  4.1634178e+01 -7.1330528e+01 -8.6784554e+01             187
  5.0719002e+01 -6.6668221e+01 -7.2851822e+01             188
  5.8479416e+01 -6.0632538e+01 -5.6442993e+01             189
  6.6437592e+01 -4.9435646e+01 -4.4573627e+01            TP10
  6.9808723e+01 -4.2798008e+01 -3.1867018e+01             191
  7.4280441e+01 -2.7781960e+01 -1.8907389e+01             192
  7.6290993e+01 -1.5153289e+01 -3.4544339e+00             193
  7.4482193e+01 -3.8318861e+00  1.4290709e+01              C6
  6.7463470e+01  5.2688360e+00  3.1019878e+01             195
  5.6381104e+01  1.2220827e+01  4.4155746e+01             196
  4.1926849e+01  1.9664927e+01  5.4236069e+01             197
  2.0793837e+01  2.4574930e+01  6.3721848e+01             198
  5.2384865e+01 -6.0402916e+01 -8.8013931e+01             199
  5.9857693e+01 -5.1086945e+01 -7.5549049e+01             200
  6.5542984e+01 -4.5593681e+01 -5.9971371e+01             201
  7.5870903e+01 -8.7086792e+00 -2.1081976e+01              T8
  7.5780334e+01  4.4998932e+00 -3.1441231e+00             203
  7.1445038e+01  1.4907692e+01  1.4780849e+01             204
  6.2602768e+01  2.3630674e+01  3.0888193e+01             205
  4.8944328e+01  3.0507010e+01  4.3894100e+01             FC4
  3.0047203e+01  3.7440327e+01  5.4884483e+01             FC2
  6.0460808e+01 -4.3856518e+01 -9.1887184e+01             208
  6.4254005e+01 -3.3435780e+01 -7.8827003e+01             209
  7.4042999e+01  6.0910072e+00 -3.7010117e+01             T10
  7.4017616e+01  1.4555002e+01 -1.9373926e+01             FT8
  7.1649178e+01  2.5985493e+01 -1.2738980e+00             212
  6.5529648e+01  3.4118225e+01  1.5714389e+01             FC6
  5.4554115e+01  4.0625732e+01  3.1275789e+01             214
  3.8702477e+01  4.7516808e+01  4.3913128e+01             215
  6.2339012e+01 -2.5017076e+01 -9.7714149e+01             216
  6.7693115e+01 -1.0506862e+01 -8.7544365e+01             217
  7.1966110e+01  4.2267361e+00 -7.3252472e+01             218
  7.2340004e+01  1.2432805e+01 -5.4086506e+01            FT10
  7.0818138e+01  2.5677086e+01 -3.7663403e+01             220
  6.8340988e+01  3.7227577e+01 -1.7455589e+01             221
  6.4106766e+01  4.5867874e+01  1.0238440e+00              F6
  5.6091827e+01  5.1967564e+01  1.7507544e+01             223
  4.5901115e+01  5.5760906e+01  3.0848625e+01              F4
  7.0206490e+01  2.5836246e+01 -5.6927643e+01             225
  6.5411774e+01  4.1356117e+01 -5.7594383e+01             F10
  6.9336327e+01  1.9809141e+01 -7.6165474e+01             227
  6.7503265e+01  7.8181300e+00 -9.2840622e+01             228
  6.1778473e+01 -7.2990899e+00 -1.0462537e+02             229
  6.1352158e+01  5.0772087e+01 -6.9033157e+01             230
  6.4930237e+01  3.4992325e+01 -8.1941536e+01             231
  6.3750359e+01  2.3539412e+01 -9.8088112e+01             232
  6.0247803e+01  8.7706728e+00 -1.1158613e+02             233
  5.3499535e+01  6.1782768e+01 -7.5097191e+01             234
  5.9466248e+01  4.7505684e+01 -8.8088318e+01             235
  5.8209145e+01  3.7363934e+01 -1.0274287e+02             236
  5.4568745e+01  2.2596228e+01 -1.1823505e+02             237
  4.1005592e+01  6.9927658e+01 -8.0096695e+01             238
  4.8968769e+01  5.8430443e+01 -9.3921059e+01             239
  5.0653160e+01  4.8165882e+01 -1.0619720e+02             240
 -4.1005592e+01  6.9927658e+01 -8.0096695e+01             241
 -4.8968769e+01  5.8430443e+01 -9.3921059e+01             242
 -5.0653160e+01  4.8165882e+01 -1.0619720e+02             243
 -5.3499535e+01  6.1782768e+01 -7.5097191e+01             244
 -5.9466248e+01  4.7505684e+01 -8.8088318e+01             245
 -5.8209145e+01  3.7363934e+01 -1.0274287e+02             246
 -5.4568745e+01  2.2596228e+01 -1.1823505e+02             247
 -6.1352158e+01  5.0772087e+01 -6.9033157e+01             248
 -6.4930237e+01  3.4992325e+01 -8.1941536e+01             249
 -6.3750359e+01  2.3539412e+01 -9.8088112e+01             250
 -6.0247803e+01  8.7706728e+00 -1.1158613e+02             251
 -6.5411774e+01  4.1356117e+01 -5.7594383e+01              F9
 -7.0206490e+01  2.5836246e+01 -5.6927643e+01             253
 -6.9336327e+01  1.9809141e+01 -7.6165474e+01             254
 -6.7503265e+01  7.8181300e+00 -9.2840622e+01             255
 -6.1778473e+01 -7.2990899e+00 -1.0462537e+02             256
  0.0000000e+00 -3.7907569e+00  7.3205482e+01              Cz